{
  "results" : [
    {
      "genre_ids" : [
        878,
        28,
        12
      ],
      "adult" : false,
      "backdrop_path" : "\/eENEf62tMXbhyVvdcXlnQz2wcuT.jpg",
      "id" : 580489,
      "original_title" : "Venom: Let There Be Carnage",
      "vote_average" : 7.2000000000000002,
      "popularity" : 6972.0029999999997,
      "poster_path" : "\/rjkmN1dniUHVYAtwuV3Tji7FsDO.jpg",
      "overview" : "After finding a host body in investigative reporter Eddie Brock, the alien symbiote must face a new enemy, Carnage, the alter ego of serial killer Cletus Kasady.",
      "title" : "Venom: Let There Be Carnage",
      "original_language" : "en",
      "vote_count" : 4500,
      "release_date" : "2021-09-30",
      "video" : false
    },
    {
      "genre_ids" : [
        28,
        35,
        80,
        53
      ],
      "adult" : false,
      "backdrop_path" : "\/7ajHGIAYNMiIzejy1LJWdPrcAx8.jpg",
      "id" : 512195,
      "original_title" : "Red Notice",
      "vote_average" : 6.7999999999999998,
      "popularity" : 4496.7600000000002,
      "poster_path" : "\/lAXONuqg41NwUMuzMiFvicDET9Y.jpg",
      "overview" : "An Interpol-issued Red Notice is a global alert to hunt and capture the world's most wanted. But when a daring heist brings together the FBI's top profiler and two rival criminals, there's no telling what will happen.",
      "title" : "Red Notice",
      "original_language" : "en",
      "vote_count" : 2016,
      "release_date" : "2021-11-04",
      "video" : false
    },
    {
      "genre_ids" : [
        28,
        12,
        878,
        14
      ],
      "adult" : false,
      "backdrop_path" : "\/VlHt27nCqOuTnuX6bku8QZapzO.jpg",
      "id" : 634649,
      "original_title" : "Spider-Man: No Way Home",
      "vote_average" : 8.4000000000000004,
      "popularity" : 4062.4459999999999,
      "poster_path" : "\/1g0dhYtq4irTY1GPXvft6k4YLjm.jpg",
      "overview" : "Peter Parker is unmasked and no longer able to separate his normal life from the high-stakes of being a super-hero. When he asks for help from Doctor Strange the stakes become even more dangerous, forcing him to discover what it truly means to be Spider-Man.",
      "title" : "Spider-Man: No Way Home",
      "original_language" : "en",
      "vote_count" : 84,
      "release_date" : "2021-12-15",
      "video" : false
    },
    {
      "genre_ids" : [
        16,
        35,
        10751
      ],
      "adult" : false,
      "backdrop_path" : "\/gSq4IvnsMKJQf0FaKn9bDE2Sggq.jpg",
      "id" : 585245,
      "original_title" : "Clifford the Big Red Dog",
      "vote_average" : 7.5999999999999996,
      "popularity" : 2509.5120000000002,
      "poster_path" : "\/ygPTrycbMSFDc5zUpy4K5ZZtQSC.jpg",
      "overview" : "As Emily struggles to fit in at home and at school, she discovers a small red puppy who is destined to become her best friend. When Clifford magically undergoes one heck of a growth spurt, becomes a gigantic dog and attracts the attention of a genetics company, Emily and her Uncle Casey have to fight the forces of greed as they go on the run across New York City. Along the way, Clifford affects the lives of everyone around him and teaches Emily and her uncle the true meaning of acceptance and unconditional love.",
      "title" : "Clifford the Big Red Dog",
      "original_language" : "en",
      "vote_count" : 568,
      "release_date" : "2021-11-10",
      "video" : false
    },
    {
      "genre_ids" : [
        16,
        35,
        10751,
        14
      ],
      "adult" : false,
      "backdrop_path" : "\/5RuR7GhOI5fElADXZb0X2sr9w5n.jpg",
      "id" : 568124,
      "original_title" : "Encanto",
      "vote_average" : 7.4000000000000004,
      "popularity" : 2579.114,
      "poster_path" : "\/4j0PNHkMr5ax3IA8tjtxcmPU3QT.jpg",
      "overview" : "The tale of an extraordinary family, the Madrigals, who live hidden in the mountains of Colombia, in a magical house, in a vibrant town, in a wondrous, charmed place called an Encanto. The magic of the Encanto has blessed every child in the family with a unique gift from super strength to the power to heal—every child except one, Mirabel. But when she discovers that the magic surrounding the Encanto is in danger, Mirabel decides that she, the only ordinary Madrigal, might just be her exceptional family's last hope.",
      "title" : "Encanto",
      "original_language" : "en",
      "vote_count" : 328,
      "release_date" : "2021-11-24",
      "video" : false
    },
    {
      "genre_ids" : [
        28,
        18,
        36
      ],
      "adult" : false,
      "backdrop_path" : "\/mFbS5TwN95BcSEfiztdchLgTQ0v.jpg",
      "id" : 617653,
      "original_title" : "The Last Duel",
      "vote_average" : 7.5999999999999996,
      "popularity" : 2326.27,
      "poster_path" : "\/zjrJE0fpzPvX8saJXj8VNfcjBoU.jpg",
      "overview" : "King Charles VI declares that Knight Jean de Carrouges settle his dispute with his squire, Jacques Le Gris, by challenging him to a duel.",
      "title" : "The Last Duel",
      "original_language" : "en",
      "vote_count" : 917,
      "release_date" : "2021-10-13",
      "video" : false
    },
    {
      "genre_ids" : [
        28,
        12,
        14
      ],
      "adult" : false,
      "backdrop_path" : "\/cinER0ESG0eJ49kXlExM0MEWGxW.jpg",
      "id" : 566525,
      "original_title" : "Shang-Chi and the Legend of the Ten Rings",
      "vote_average" : 7.7999999999999998,
      "popularity" : 2453.799,
      "poster_path" : "\/1BIoJGKbXjdFDAqUEiA2VHqkK1Z.jpg",
      "overview" : "Shang-Chi must confront the past he thought he left behind when he is drawn into the web of the mysterious Ten Rings organization.",
      "title" : "Shang-Chi and the Legend of the Ten Rings",
      "original_language" : "en",
      "vote_count" : 4244,
      "release_date" : "2021-09-01",
      "video" : false
    },
    {
      "genre_ids" : [
        18,
        36,
        12
      ],
      "adult" : false,
      "backdrop_path" : "\/xGrTm3J0FTafmuQ85vF7ZCw94x6.jpg",
      "id" : 589761,
      "original_title" : "Чернобыль",
      "vote_average" : 6.2000000000000002,
      "popularity" : 1851.2539999999999,
      "poster_path" : "\/kfQJQWFEoWRVBH8FUKnT0HX1yRS.jpg",
      "overview" : "The aftermath of a shocking explosion at the Chernobyl nuclear power station made hundreds of people sacrifice their lives to clean up the site of the catastrophe and to successfully prevent an even bigger disaster that could have turned a large part of the European continent into an uninhabitable exclusion zone. This is their story.",
      "title" : "Chernobyl: Abyss",
      "original_language" : "ru",
      "vote_count" : 236,
      "release_date" : "2021-04-15",
      "video" : false
    },
    {
      "genre_ids" : [
        16,
        878,
        10751,
        35
      ],
      "adult" : false,
      "backdrop_path" : "\/1aHMaBE40pU77XUHqSi7FSCngQ2.jpg",
      "id" : 482321,
      "original_title" : "Ron's Gone Wrong",
      "vote_average" : 8.5,
      "popularity" : 1917.981,
      "poster_path" : "\/gA9QxSravC2EVEkEKgyEmDrfL0e.jpg",
      "overview" : "In a world where walking, talking, digitally connected bots have become children's best friends, an 11-year-old finds that his robot buddy doesn't quite work the same as the others do.",
      "title" : "Ron's Gone Wrong",
      "original_language" : "en",
      "vote_count" : 343,
      "release_date" : "2021-10-15",
      "video" : false
    },
    {
      "genre_ids" : [
        37,
        28,
        53
      ],
      "adult" : false,
      "backdrop_path" : "\/upOi9aVqPPky7Ba4GsiyFdjc82I.jpg",
      "id" : 887767,
      "original_title" : "Last Shoot Out",
      "vote_average" : 7.0999999999999996,
      "popularity" : 1483.7239999999999,
      "poster_path" : "\/pvEtPxotI3POlVPvNxgrHJuDXfe.jpg",
      "overview" : "Soon after a newlywed learns that her husband had her father shot down, she flees from the Callahan ranch in fear. She's rescued by a gunman who safeguards her at a remote outpost as he staves off her husband's attempts to reclaim his bride.",
      "title" : "Last Shoot Out",
      "original_language" : "en",
      "vote_count" : 27,
      "release_date" : "2021-12-03",
      "video" : false
    },
    {
      "genre_ids" : [
        12,
        28,
        53
      ],
      "adult" : false,
      "backdrop_path" : "\/r2GAjd4rNOHJh6i6Y0FntmYuPQW.jpg",
      "id" : 370172,
      "original_title" : "No Time to Die",
      "vote_average" : 7.5999999999999996,
      "popularity" : 1474.837,
      "poster_path" : "\/iUgygt3fscRoKWCV1d0C7FbM9TP.jpg",
      "overview" : "Bond has left active service and is enjoying a tranquil life in Jamaica. His peace is short-lived when his old friend Felix Leiter from the CIA turns up asking for help. The mission to rescue a kidnapped scientist turns out to be far more treacherous than expected, leading Bond onto the trail of a mysterious villain armed with dangerous new technology.",
      "title" : "No Time to Die",
      "original_language" : "en",
      "vote_count" : 2543,
      "release_date" : "2021-09-29",
      "video" : false
    },
    {
      "genre_ids" : [
        28,
        12,
        878,
        18,
        14
      ],
      "adult" : false,
      "backdrop_path" : "\/lyvszvJJqqI8aqBJ70XzdCNoK0y.jpg",
      "id" : 524434,
      "original_title" : "Eternals",
      "vote_average" : 7.0999999999999996,
      "popularity" : 1474.011,
      "poster_path" : "\/6AdXwFTRTAzggD2QUTt5B7JFGKL.jpg",
      "overview" : "The Eternals are a team of ancient aliens who have been living on Earth in secret for thousands of years. When an unexpected tragedy forces them out of the shadows, they are forced to reunite against mankind’s most ancient enemy, the Deviants.",
      "title" : "Eternals",
      "original_language" : "en",
      "vote_count" : 1416,
      "release_date" : "2021-11-03",
      "video" : false
    },
    {
      "genre_ids" : [
        27,
        9648,
        53
      ],
      "adult" : false,
      "backdrop_path" : "\/39EQTf94Lckdo8yzS1CdWQSgmen.jpg",
      "id" : 609972,
      "original_title" : "Paranormal Activity: Next of Kin",
      "vote_average" : 6.7000000000000002,
      "popularity" : 1127.5599999999999,
      "poster_path" : "\/bXAVveHiLotZbWdg3PKGhAzxYKP.jpg",
      "overview" : "Margot, a documentary filmmaker, heads to a secluded Amish community in the hopes of learning about her long-lost mother and extended family. Following a string of strange occurrences and discoveries, she comes to realize this community may not be what it seems.",
      "title" : "Paranormal Activity: Next of Kin",
      "original_language" : "en",
      "vote_count" : 151,
      "release_date" : "2021-10-29",
      "video" : false
    },
    {
      "genre_ids" : [
        16,
        35,
        10751
      ],
      "adult" : false,
      "backdrop_path" : "\/5RMqFZdefnDwY7rdD1oJcTkWPdF.jpg",
      "id" : 774741,
      "original_title" : "Diary of a Wimpy Kid",
      "vote_average" : 7.0999999999999996,
      "popularity" : 1836.038,
      "poster_path" : "\/obg6lWuNaZkoSlwrVG4VVk4SmT.jpg",
      "overview" : "Greg Heffley is a scrawny but ambitious kid with an active imagination and big plans to be rich and famous – he just has to survive middle school first.",
      "title" : "Diary of a Wimpy Kid",
      "original_language" : "en",
      "vote_count" : 71,
      "release_date" : "2021-12-03",
      "video" : false
    },
    {
      "genre_ids" : [
        878,
        18,
        12
      ],
      "adult" : false,
      "backdrop_path" : "\/oE6bhqqVFyIECtBzqIuvh6JdaB5.jpg",
      "id" : 522402,
      "original_title" : "Finch",
      "vote_average" : 8.1999999999999993,
      "popularity" : 1039.6120000000001,
      "poster_path" : "\/jKuDyqx7jrjiR9cDzB5pxzhJAdv.jpg",
      "overview" : "On a post-apocalyptic Earth, a robot, built to protect the life of his dying creator's beloved dog, learns about life, love, friendship, and what it means to be human.",
      "title" : "Finch",
      "original_language" : "en",
      "vote_count" : 1439,
      "release_date" : "2021-11-04",
      "video" : false
    },
    {
      "genre_ids" : [
        53,
        10752
      ],
      "adult" : false,
      "backdrop_path" : "\/uWGPC7j70LE64nbetxQGSSYJO53.jpg",
      "id" : 762433,
      "original_title" : "Zeros and Ones",
      "vote_average" : 5.5999999999999996,
      "popularity" : 1154.7670000000001,
      "poster_path" : "\/wrClTreFxBtxo2XhHQf9GtUPa3x.jpg",
      "overview" : "Called to Rome to stop an imminent terrorist bombing, a soldier desperately seeks news of his imprisoned brother — a rebel with knowledge that could thwart the attack. Navigating the capital's darkened streets, he races to a series of ominous encounters to keep the Vatican from being blown to bits.",
      "title" : "Zeros and Ones",
      "original_language" : "en",
      "vote_count" : 68,
      "release_date" : "2021-11-18",
      "video" : false
    },
    {
      "genre_ids" : [
        16,
        35,
        14
      ],
      "adult" : false,
      "backdrop_path" : "\/1zgob2Z8xVE3RZUgOKnHKcVPzOE.jpg",
      "id" : 877183,
      "original_title" : "The Simpsons in Plusaversary",
      "vote_average" : 6.7000000000000002,
      "popularity" : 1020.3579999999999,
      "poster_path" : "\/9xaAT3V3I9xxqnNiEjCivNFfdlh.jpg",
      "overview" : "The Simpsons host a Disney+ Day party and everyone is on the list… except Homer. With friends from across the service and music fit for a Disney Princess, Plusaversary is Springfield's event of the year.",
      "title" : "The Simpsons in Plusaversary",
      "original_language" : "en",
      "vote_count" : 164,
      "release_date" : "2021-11-12",
      "video" : false
    },
    {
      "genre_ids" : [
        27
      ],
      "adult" : false,
      "backdrop_path" : "\/5WnfgU7myfqgkbl3CSj7LQeHU0e.jpg",
      "id" : 895001,
      "original_title" : "ปริศนารูหลอน",
      "vote_average" : 6.5999999999999996,
      "popularity" : 999.52200000000005,
      "poster_path" : "\/bPq6x47nEqMZED5PrKelcWWpezM.jpg",
      "overview" : "When two siblings stumble on a strange hole in the wall of their grandparents’ house, horrifying incidents reveal sinister secrets about their family.",
      "title" : "The Whole Truth",
      "original_language" : "th",
      "vote_count" : 49,
      "release_date" : "2021-12-02",
      "video" : false
    },
    {
      "genre_ids" : [
        28
      ],
      "adult" : false,
      "backdrop_path" : "\/3cMfwbF1J9fglSssim4zKG6scIs.jpg",
      "id" : 876262,
      "original_title" : "Garota da Moto",
      "vote_average" : 4.9000000000000004,
      "popularity" : 1055.7570000000001,
      "poster_path" : "\/sYoWjGSW4XQRWwFDHf3kdMqtCLr.jpg",
      "overview" : "",
      "title" : "Garota da Moto",
      "original_language" : "pt",
      "vote_count" : 4,
      "release_date" : "2021-09-23",
      "video" : false
    },
    {
      "genre_ids" : [
        35,
        28,
        12,
        878
      ],
      "adult" : false,
      "backdrop_path" : "\/8Y43POKjjKDGI9MH89NW0NAzzp8.jpg",
      "id" : 550988,
      "original_title" : "Free Guy",
      "vote_average" : 7.7999999999999998,
      "popularity" : 971.66800000000001,
      "poster_path" : "\/xmbU4JTUm8rsdtn7Y3Fcm30GpeT.jpg",
      "overview" : "A bank teller called Guy realizes he is a background character in an open world video game called Free City that will soon go offline.",
      "title" : "Free Guy",
      "original_language" : "en",
      "vote_count" : 4091,
      "release_date" : "2021-08-11",
      "video" : false
    }
  ],
  "total_pages" : 31568,
  "total_results" : 631355,
  "page" : 1
}
